-a="C:\Users\Quyet Trader\Desktop\UnityWorkSpace\Poly\Library\ScriptAssemblies\Assembly-CSharp-firstpass.dll"
-a="C:\Users\Quyet Trader\Desktop\UnityWorkSpace\Poly\Library\ScriptAssemblies\Assembly-CSharp.dll"
-a="C:\Users\Quyet Trader\Desktop\UnityWorkSpace\Poly\Library\ScriptAssemblies\PhotonChat.dll"
-a="C:\Users\Quyet Trader\Desktop\UnityWorkSpace\Poly\Library\ScriptAssemblies\Unity.RenderPipelines.Universal.Shaders.dll"
-a="C:\Users\Quyet Trader\Desktop\UnityWorkSpace\Poly\Library\ScriptAssemblies\Unity.RenderPipelines.Universal.Runtime.dll"
-a="C:\Users\Quyet Trader\Desktop\UnityWorkSpace\Poly\Library\ScriptAssemblies\UnityEngine.TestRunner.dll"
-a="C:\Users\Quyet Trader\Desktop\UnityWorkSpace\Poly\Library\ScriptAssemblies\Unity.Timeline.dll"
-a="C:\Users\Quyet Trader\Desktop\UnityWorkSpace\Poly\Library\ScriptAssemblies\Unity.TextMeshPro.dll"
-a="C:\Users\Quyet Trader\Desktop\UnityWorkSpace\Poly\Library\ScriptAssemblies\Unity.RenderPipelines.Core.Runtime.dll"
-a="C:\Users\Quyet Trader\Desktop\UnityWorkSpace\Poly\Library\ScriptAssemblies\Unity.InputSystem.dll"
-a="C:\Users\Quyet Trader\Desktop\UnityWorkSpace\Poly\Library\ScriptAssemblies\PhotonRealtime.dll"
-a="C:\Users\Quyet Trader\Desktop\UnityWorkSpace\Poly\Library\ScriptAssemblies\Unity.RenderPipelines.Core.ShaderLibrary.dll"
-a="C:\Users\Quyet Trader\Desktop\UnityWorkSpace\Poly\Library\ScriptAssemblies\UnityEngine.UI.dll"
-a="C:\Users\Quyet Trader\Desktop\UnityWorkSpace\Poly\Library\ScriptAssemblies\PhotonUnityNetworking.Utilities.dll"
-a="C:\Users\Quyet Trader\Desktop\UnityWorkSpace\Poly\Library\ScriptAssemblies\PathCreator.dll"
-a="C:\Users\Quyet Trader\Desktop\UnityWorkSpace\Poly\Library\ScriptAssemblies\Unity.Mathematics.dll"
-a="C:\Users\Quyet Trader\Desktop\UnityWorkSpace\Poly\Library\ScriptAssemblies\PhotonUnityNetworking.dll"
-a="C:\Users\Quyet Trader\Desktop\UnityWorkSpace\Poly\Library\ScriptAssemblies\Cinemachine.dll"
-a="C:\Users\Quyet Trader\Desktop\UnityWorkSpace\Poly\Library\ScriptAssemblies\Unity.Postprocessing.Runtime.dll"
-a="C:\Users\Quyet Trader\Desktop\UnityWorkSpace\Poly\Library\ScriptAssemblies\Unity.RenderPipeline.Universal.ShaderLibrary.dll"
-a="C:\Users\Quyet Trader\Desktop\UnityWorkSpace\Poly\Library\ScriptAssemblies\Unity.RenderPipelines.ShaderGraph.ShaderGraphLibrary.dll"
-a="C:\Users\Quyet Trader\Desktop\UnityWorkSpace\Poly\Library\ScriptAssemblies\PhotonUnityNetworking.Demos.dll"
-a="C:\Users\Quyet Trader\Desktop\UnityWorkSpace\Poly\Assets\Plugins\Nethereum.JsonRpc.WebSocketClient.dll"
-a="C:\Users\Quyet Trader\Desktop\UnityWorkSpace\Poly\Assets\Plugins\System.Threading.Tasks.dll"
-a="C:\Users\Quyet Trader\Desktop\UnityWorkSpace\Poly\Assets\Plugins\System.Security.Cryptography.Primitives.dll"
-a="C:\Users\Quyet Trader\Desktop\UnityWorkSpace\Poly\Assets\Plugins\System.Diagnostics.Debug.dll"
-a="C:\Users\Quyet Trader\Desktop\UnityWorkSpace\Poly\Assets\Plugins\System.Reflection.Primitives.dll"
-a="C:\Users\Quyet Trader\Desktop\UnityWorkSpace\Poly\Assets\Photon\PhotonLibs\netstandard2.0\Photon3Unity3D.dll"
-a="C:\Users\Quyet Trader\Desktop\UnityWorkSpace\Poly\Assets\Plugins\Nethereum.RPC.dll"
-a="C:\Users\Quyet Trader\Desktop\UnityWorkSpace\Poly\Assets\Plugins\System.Runtime.Serialization.Json.dll"
-a="C:\Users\Quyet Trader\Desktop\UnityWorkSpace\Poly\Assets\Plugins\System.Linq.dll"
-a="C:\Users\Quyet Trader\Desktop\UnityWorkSpace\Poly\Assets\Plugins\System.Net.WebHeaderCollection.dll"
-a="C:\Users\Quyet Trader\Desktop\UnityWorkSpace\Poly\Assets\Plugins\System.Net.Sockets.dll"
-a="C:\Users\Quyet Trader\Desktop\UnityWorkSpace\Poly\Assets\Plugins\System.Runtime.Handles.dll"
-a="C:\Users\Quyet Trader\Desktop\UnityWorkSpace\Poly\Assets\Plugins\System.Xml.XmlDocument.dll"
-a="C:\Users\Quyet Trader\Desktop\UnityWorkSpace\Poly\Assets\Plugins\System.Drawing.Primitives.dll"
-a="C:\Users\Quyet Trader\Desktop\UnityWorkSpace\Poly\Assets\Plugins\System.Runtime.Extensions.dll"
-a="C:\Users\Quyet Trader\Desktop\UnityWorkSpace\Poly\Assets\Plugins\Nethereum.Geth.dll"
-a="C:\Users\Quyet Trader\Desktop\UnityWorkSpace\Poly\Assets\Plugins\Nethereum.Contracts.dll"
-a="C:\Users\Quyet Trader\Desktop\UnityWorkSpace\Poly\Assets\Plugins\Nethereum.JsonRpc.IpcClient.dll"
-a="C:\Users\Quyet Trader\Desktop\UnityWorkSpace\Poly\Assets\Plugins\System.Collections.dll"
-a="C:\Users\Quyet Trader\Desktop\UnityWorkSpace\Poly\Assets\Plugins\System.Linq.Queryable.dll"
-a="C:\Users\Quyet Trader\Desktop\UnityWorkSpace\Poly\Assets\Plugins\System.Reactive.dll"
-a="C:\Users\Quyet Trader\Desktop\UnityWorkSpace\Poly\Library\PackageCache\com.unity.ext.nunit@1.0.6\net35\unity-custom\nunit.framework.dll"
-a="C:\Users\Quyet Trader\Desktop\UnityWorkSpace\Poly\Assets\Plugins\Nethereum.Util.dll"
-a="C:\Users\Quyet Trader\Desktop\UnityWorkSpace\Poly\Assets\Plugins\System.Net.Requests.dll"
-a="C:\Users\Quyet Trader\Desktop\UnityWorkSpace\Poly\Assets\Plugins\System.Security.Cryptography.Csp.dll"
-a="C:\Users\Quyet Trader\Desktop\UnityWorkSpace\Poly\Assets\Plugins\System.Threading.dll"
-a="C:\Users\Quyet Trader\Desktop\UnityWorkSpace\Poly\Assets\Plugins\Nethereum.JsonRpc.Client.dll"
-a="C:\Users\Quyet Trader\Desktop\UnityWorkSpace\Poly\Assets\Photon\PhotonLibs\WebSocket\websocket-sharp.dll"
-a="C:\Users\Quyet Trader\Desktop\UnityWorkSpace\Poly\Assets\Plugins\System.Runtime.dll"
-a="C:\Users\Quyet Trader\Desktop\UnityWorkSpace\Poly\Assets\Plugins\Nethereum.Web3.dll"
-a="C:\Users\Quyet Trader\Desktop\UnityWorkSpace\Poly\Assets\Plugins\Microsoft.Extensions.Logging.Abstractions.dll"
-a="C:\Users\Quyet Trader\Desktop\UnityWorkSpace\Poly\Assets\Plugins\System.Text.RegularExpressions.dll"
-a="C:\Users\Quyet Trader\Desktop\UnityWorkSpace\Poly\Assets\Plugins\System.Net.WebSockets.Client.dll"
-a="C:\Users\Quyet Trader\Desktop\UnityWorkSpace\Poly\Assets\Plugins\System.IO.Compression.ZipFile.dll"
-a="C:\Users\Quyet Trader\Desktop\UnityWorkSpace\Poly\Assets\Plugins\System.Net.NameResolution.dll"
-a="C:\Users\Quyet Trader\Desktop\UnityWorkSpace\Poly\Assets\Photon\PhotonLibs\Metro\Photon3Unity3D.dll"
-a="C:\Users\Quyet Trader\Desktop\UnityWorkSpace\Poly\Assets\Plugins\System.ComponentModel.EventBasedAsync.dll"
-a="C:\Users\Quyet Trader\Desktop\UnityWorkSpace\Poly\Assets\Plugins\System.Runtime.CompilerServices.Unsafe.dll"
-a="C:\Users\Quyet Trader\Desktop\UnityWorkSpace\Poly\Assets\Plugins\System.IO.Pipes.dll"
-a="C:\Users\Quyet Trader\Desktop\UnityWorkSpace\Poly\Assets\Plugins\System.Xml.XPath.dll"
-a="C:\Users\Quyet Trader\Desktop\UnityWorkSpace\Poly\Assets\Plugins\System.Runtime.Serialization.Formatters.dll"
-a="C:\Users\Quyet Trader\Desktop\UnityWorkSpace\Poly\Assets\Plugins\System.Net.WebSockets.dll"
-a="C:\Users\Quyet Trader\Desktop\UnityWorkSpace\Poly\Assets\Plugins\System.IO.MemoryMappedFiles.dll"
-a="C:\Users\Quyet Trader\Desktop\UnityWorkSpace\Poly\Assets\Plugins\System.Buffers.dll"
-a="C:\Users\Quyet Trader\Desktop\UnityWorkSpace\Poly\Assets\Plugins\System.Diagnostics.TextWriterTraceListener.dll"
-a="C:\Users\Quyet Trader\Desktop\UnityWorkSpace\Poly\Assets\Plugins\System.Xml.ReaderWriter.dll"
-a="C:\Users\Quyet Trader\Desktop\UnityWorkSpace\Poly\Assets\Plugins\System.IO.FileSystem.Primitives.dll"
-a="C:\Users\Quyet Trader\Desktop\UnityWorkSpace\Poly\Assets\Plugins\System.Security.Cryptography.Encoding.dll"
-a="C:\Users\Quyet Trader\Desktop\UnityWorkSpace\Poly\Assets\Plugins\System.ComponentModel.Primitives.dll"
-a="C:\Users\Quyet Trader\Desktop\UnityWorkSpace\Poly\Assets\Plugins\netstandard.dll"
-a="C:\Users\Quyet Trader\Desktop\UnityWorkSpace\Poly\Assets\Plugins\System.Net.Ping.dll"
-a="C:\Users\Quyet Trader\Desktop\UnityWorkSpace\Poly\Assets\Plugins\System.Net.Security.dll"
-a="C:\Users\Quyet Trader\Desktop\UnityWorkSpace\Poly\Assets\Plugins\Nethereum.RLP.dll"
-a="C:\Users\Quyet Trader\Desktop\UnityWorkSpace\Poly\Assets\Plugins\System.Threading.ThreadPool.dll"
-a="C:\Users\Quyet Trader\Desktop\UnityWorkSpace\Poly\Assets\Plugins\System.Globalization.Calendars.dll"
-a="C:\Users\Quyet Trader\Desktop\UnityWorkSpace\Poly\Assets\Plugins\System.Xml.XDocument.dll"
-a="C:\Users\Quyet Trader\Desktop\UnityWorkSpace\Poly\Assets\Plugins\System.Text.Encoding.dll"
-a="C:\Users\Quyet Trader\Desktop\UnityWorkSpace\Poly\Assets\Plugins\System.IO.FileSystem.dll"
-a="C:\Users\Quyet Trader\Desktop\UnityWorkSpace\Poly\Assets\Plugins\BouncyCastle.Crypto.dll"
-a="C:\Users\Quyet Trader\Desktop\UnityWorkSpace\Poly\Assets\Plugins\System.Runtime.CompilerServices.VisualC.dll"
-a="C:\Users\Quyet Trader\Desktop\UnityWorkSpace\Poly\Assets\Plugins\System.Runtime.Serialization.Xml.dll"
-a="C:\Users\Quyet Trader\Desktop\UnityWorkSpace\Poly\Assets\Plugins\System.Net.Primitives.dll"
-a="C:\Users\Quyet Trader\Desktop\UnityWorkSpace\Poly\Library\PackageCache\com.unity.nuget.newtonsoft-json@2.0.0\Runtime\AOT\Newtonsoft.Json.dll"
-a="C:\Users\Quyet Trader\Desktop\UnityWorkSpace\Poly\Assets\Plugins\System.ComponentModel.TypeConverter.dll"
-a="C:\Users\Quyet Trader\Desktop\UnityWorkSpace\Poly\Assets\Plugins\Nethereum.Model.dll"
-a="C:\Users\Quyet Trader\Desktop\UnityWorkSpace\Poly\Assets\Plugins\System.IO.UnmanagedMemoryStream.dll"
-a="C:\Users\Quyet Trader\Desktop\UnityWorkSpace\Poly\Assets\Plugins\System.Net.NetworkInformation.dll"
-a="C:\Users\Quyet Trader\Desktop\UnityWorkSpace\Poly\Assets\Plugins\System.Threading.Timer.dll"
-a="C:\Users\Quyet Trader\Desktop\UnityWorkSpace\Poly\Assets\Plugins\Nethereum.RPC.Reactive.dll"
-a="C:\Users\Quyet Trader\Desktop\UnityWorkSpace\Poly\Assets\Photon\PhotonLibs\Photon3Unity3D.dll"
-a="C:\Users\Quyet Trader\Desktop\UnityWorkSpace\Poly\Assets\Plugins\System.Runtime.InteropServices.dll"
-a="C:\Users\Quyet Trader\Desktop\UnityWorkSpace\Poly\Assets\Plugins\Nethereum.Accounts.dll"
-a="C:\Users\Quyet Trader\Desktop\UnityWorkSpace\Poly\Assets\Plugins\System.Threading.Thread.dll"
-a="C:\Users\Quyet Trader\Desktop\UnityWorkSpace\Poly\Assets\Plugins\System.Data.Common.dll"
-a="C:\Users\Quyet Trader\Desktop\UnityWorkSpace\Poly\Assets\Plugins\System.Security.Principal.dll"
-a="C:\Users\Quyet Trader\Desktop\UnityWorkSpace\Poly\Assets\Plugins\System.Threading.Overlapped.dll"
-a="C:\Users\Quyet Trader\Desktop\UnityWorkSpace\Poly\Library\PackageCache\com.unity.nuget.newtonsoft-json@2.0.0\Runtime\Portable\Newtonsoft.Json.dll"
-a="C:\Users\Quyet Trader\Desktop\UnityWorkSpace\Poly\Assets\Plugins\System.Diagnostics.Tools.dll"
-a="C:\Users\Quyet Trader\Desktop\UnityWorkSpace\Poly\Assets\Plugins\System.IO.FileSystem.Watcher.dll"
-a="C:\Users\Quyet Trader\Desktop\UnityWorkSpace\Poly\Assets\Plugins\System.Diagnostics.StackTrace.dll"
-a="C:\Users\Quyet Trader\Desktop\UnityWorkSpace\Poly\Assets\Plugins\System.Globalization.Extensions.dll"
-a="C:\Users\Quyet Trader\Desktop\UnityWorkSpace\Poly\Assets\Plugins\Nethereum.JsonRpc.RpcClient.dll"
-a="C:\Users\Quyet Trader\Desktop\UnityWorkSpace\Poly\Assets\Plugins\System.Resources.Reader.dll"
-a="C:\Users\Quyet Trader\Desktop\UnityWorkSpace\Poly\Assets\Plugins\Nethereum.Quorum.dll"
-a="C:\Users\Quyet Trader\Desktop\UnityWorkSpace\Poly\Assets\Plugins\System.Collections.Concurrent.dll"
-a="C:\Users\Quyet Trader\Desktop\UnityWorkSpace\Poly\Assets\Plugins\System.Xml.XmlSerializer.dll"
-a="C:\Users\Quyet Trader\Desktop\UnityWorkSpace\Poly\Assets\Plugins\System.IO.dll"
-a="C:\Users\Quyet Trader\Desktop\UnityWorkSpace\Poly\Assets\Plugins\System.Reflection.Extensions.dll"
-a="C:\Users\Quyet Trader\Desktop\UnityWorkSpace\Poly\Library\PackageCache\com.unity.nuget.newtonsoft-json@2.0.0\Runtime\Newtonsoft.Json.dll"
-a="C:\Users\Quyet Trader\Desktop\UnityWorkSpace\Poly\Assets\Plugins\Nethereum.Unity.dll"
-a="C:\Users\Quyet Trader\Desktop\UnityWorkSpace\Poly\Assets\Plugins\System.Diagnostics.Tracing.dll"
-a="C:\Users\Quyet Trader\Desktop\UnityWorkSpace\Poly\Assets\Plugins\System.Console.dll"
-a="C:\Users\Quyet Trader\Desktop\UnityWorkSpace\Poly\Assets\Plugins\System.IO.IsolatedStorage.dll"
-a="C:\Users\Quyet Trader\Desktop\UnityWorkSpace\Poly\Assets\Plugins\System.Security.Claims.dll"
-a="C:\Users\Quyet Trader\Desktop\UnityWorkSpace\Poly\Assets\Plugins\System.AppContext.dll"
-a="C:\Users\Quyet Trader\Desktop\UnityWorkSpace\Poly\Assets\Plugins\System.Linq.Parallel.dll"
-a="C:\Users\Quyet Trader\Desktop\UnityWorkSpace\Poly\Assets\Plugins\System.Reflection.dll"
-a="C:\Users\Quyet Trader\Desktop\UnityWorkSpace\Poly\Assets\Plugins\System.Security.Cryptography.X509Certificates.dll"
-a="C:\Users\Quyet Trader\Desktop\UnityWorkSpace\Poly\Assets\Plugins\Microsoft.Win32.Primitives.dll"
-a="C:\Users\Quyet Trader\Desktop\UnityWorkSpace\Poly\Assets\Plugins\System.Collections.NonGeneric.dll"
-a="C:\Users\Quyet Trader\Desktop\UnityWorkSpace\Poly\Assets\Plugins\System.Linq.Expressions.dll"
-a="C:\Users\Quyet Trader\Desktop\UnityWorkSpace\Poly\Assets\Plugins\System.Runtime.Serialization.Primitives.dll"
-a="C:\Users\Quyet Trader\Desktop\UnityWorkSpace\Poly\Assets\Plugins\System.Resources.Writer.dll"
-a="C:\Users\Quyet Trader\Desktop\UnityWorkSpace\Poly\Assets\Plugins\Nethereum.Signer.dll"
-a="C:\Users\Quyet Trader\Desktop\UnityWorkSpace\Poly\Assets\Plugins\System.IO.FileSystem.DriveInfo.dll"
-a="C:\Users\Quyet Trader\Desktop\UnityWorkSpace\Poly\Assets\Plugins\Nethereum.BlockchainProcessing.dll"
-a="C:\Users\Quyet Trader\Desktop\UnityWorkSpace\Poly\Assets\Plugins\Nethereum.Besu.dll"
-a="C:\Users\Quyet Trader\Desktop\UnityWorkSpace\Poly\Assets\Plugins\System.IO.Compression.dll"
-a="C:\Users\Quyet Trader\Desktop\UnityWorkSpace\Poly\Assets\Plugins\System.ValueTuple.dll"
-a="C:\Users\Quyet Trader\Desktop\UnityWorkSpace\Poly\Assets\Plugins\Nethereum.ABI.dll"
-a="C:\Users\Quyet Trader\Desktop\UnityWorkSpace\Poly\Assets\Plugins\System.ObjectModel.dll"
-a="C:\Users\Quyet Trader\Desktop\UnityWorkSpace\Poly\Assets\Plugins\System.Diagnostics.TraceSource.dll"
-a="C:\Users\Quyet Trader\Desktop\UnityWorkSpace\Poly\Assets\Plugins\System.Dynamic.Runtime.dll"
-a="C:\Users\Quyet Trader\Desktop\UnityWorkSpace\Poly\Assets\Plugins\System.Runtime.InteropServices.RuntimeInformation.dll"
-a="C:\Users\Quyet Trader\Desktop\UnityWorkSpace\Poly\Assets\Plugins\System.Diagnostics.Process.dll"
-a="C:\Users\Quyet Trader\Desktop\UnityWorkSpace\Poly\Assets\Plugins\System.Runtime.Numerics.dll"
-a="C:\Users\Quyet Trader\Desktop\UnityWorkSpace\Poly\Assets\Plugins\System.Threading.Tasks.Parallel.dll"
-a="C:\Users\Quyet Trader\Desktop\UnityWorkSpace\Poly\Assets\Plugins\System.Text.Encoding.Extensions.dll"
-a="C:\Users\Quyet Trader\Desktop\UnityWorkSpace\Poly\Assets\Plugins\System.Diagnostics.FileVersionInfo.dll"
-a="C:\Users\Quyet Trader\Desktop\UnityWorkSpace\Poly\Assets\Plugins\Nethereum.KeyStore.dll"
-a="C:\Users\Quyet Trader\Desktop\UnityWorkSpace\Poly\Assets\Plugins\System.Globalization.dll"
-a="C:\Users\Quyet Trader\Desktop\UnityWorkSpace\Poly\Assets\Plugins\Nethereum.Parity.dll"
-a="C:\Users\Quyet Trader\Desktop\UnityWorkSpace\Poly\Assets\Plugins\Common.Logging.Core.dll"
-a="C:\Users\Quyet Trader\Desktop\UnityWorkSpace\Poly\Assets\Plugins\System.Resources.ResourceManager.dll"
-a="C:\Users\Quyet Trader\Desktop\UnityWorkSpace\Poly\Assets\Plugins\System.ComponentModel.dll"
-a="C:\Users\Quyet Trader\Desktop\UnityWorkSpace\Poly\Assets\Plugins\Nethereum.Hex.dll"
-a="C:\Users\Quyet Trader\Desktop\UnityWorkSpace\Poly\Assets\Plugins\System.Security.Cryptography.Algorithms.dll"
-a="C:\Users\Quyet Trader\Desktop\UnityWorkSpace\Poly\Assets\Plugins\System.Security.SecureString.dll"
-a="C:\Users\Quyet Trader\Desktop\UnityWorkSpace\Poly\Assets\Plugins\System.Collections.Specialized.dll"
-a="C:\Users\Quyet Trader\Desktop\UnityWorkSpace\Poly\Assets\Plugins\System.Threading.Tasks.Extensions.dll"
-a="C:\Users\Quyet Trader\Desktop\UnityWorkSpace\Poly\Assets\Plugins\System.Xml.XPath.XDocument.dll"
-a="C:\Users\Quyet Trader\Desktop\UnityWorkSpace\Poly\Assets\Plugins\Nethereum.StandardTokenEIP20.dll"
-a="C:\Users\Quyet Trader\Desktop\UnityWorkSpace\Poly\Assets\Plugins\System.Diagnostics.Contracts.dll"
-a="C:\Users\Quyet Trader\Desktop\UnityWorkSpace\Poly\Assets\Plugins\JsonDotNet\Assemblies\Windows\Newtonsoft.Json.dll"
-s="C:\Program Files\Unity\Hub\Editor\2020.3.23f1\Editor\Data\Managed\UnityEngine"
-s="C:\Users\Quyet Trader\Desktop\UnityWorkSpace\Poly\Library\ScriptAssemblies"
-s="C:\Users\Quyet Trader\Desktop\UnityWorkSpace\Poly\Assets\Plugins"
-s="C:\Users\Quyet Trader\Desktop\UnityWorkSpace\Poly\Assets\Photon\PhotonLibs\netstandard2.0"
-s="C:\Users\Quyet Trader\Desktop\UnityWorkSpace\Poly\Library\PackageCache\com.unity.ext.nunit@1.0.6\net35\unity-custom"
-s="C:\Users\Quyet Trader\Desktop\UnityWorkSpace\Poly\Assets\Photon\PhotonLibs\WebSocket"
-s="C:\Users\Quyet Trader\Desktop\UnityWorkSpace\Poly\Assets\Photon\PhotonLibs\Metro"
-s="C:\Users\Quyet Trader\Desktop\UnityWorkSpace\Poly\Library\PackageCache\com.unity.nuget.newtonsoft-json@2.0.0\Runtime\AOT"
-s="C:\Users\Quyet Trader\Desktop\UnityWorkSpace\Poly\Assets\Photon\PhotonLibs"
-s="C:\Users\Quyet Trader\Desktop\UnityWorkSpace\Poly\Library\PackageCache\com.unity.nuget.newtonsoft-json@2.0.0\Runtime\Portable"
-s="C:\Users\Quyet Trader\Desktop\UnityWorkSpace\Poly\Library\PackageCache\com.unity.nuget.newtonsoft-json@2.0.0\Runtime"
-s="C:\Users\Quyet Trader\Desktop\UnityWorkSpace\Poly\Assets\Plugins\JsonDotNet\Assemblies\Windows"
-s="C:\Program Files\Unity\Hub\Editor\2020.3.23f1\Editor\Data\Managed\UnityEngine"
-s="C:\Program Files\Unity\Hub\Editor\2020.3.23f1\Editor\Data\NetStandard\ref\2.0.0"
-s="C:\Program Files\Unity\Hub\Editor\2020.3.23f1\Editor\Data\NetStandard\compat\2.0.0\shims\netstandard"
-s="C:\Program Files\Unity\Hub\Editor\2020.3.23f1\Editor\Data\NetStandard\Extensions\2.0.0"
-s="C:\Program Files\Unity\Hub\Editor\2020.3.23f1\Editor\Data\NetStandard\compat\2.0.0\shims\netfx"
-o="C:\Users\Quyet Trader\Desktop\UnityWorkSpace\Poly\Library\BuildPlayerData\Editor"
-rn=""
-tn="TypeDb-All.json"
