%YAML 1.1
%TAG !u! tag:unity3d.com,2011:
--- !u!1045 &1
EditorBuildSettings:
  m_ObjectHideFlags: 0
  serializedVersion: 2
  m_Scenes:
  - enabled: 1
    path: Assets/Scenes/Loading.unity
    guid: 815dc57b29f36a34699aaac93fb3d069
  - enabled: 1
    path: Assets/Scenes/Lobby.unity
    guid: 277f22c1a8e4058499babf9be0f35888
  m_configObjects:
    com.unity.input.settings: {fileID: 11400000, guid: 9e7be553448fa2546aea5752021cbcf7, type: 2}
